Exploratory
…
clean data

transformed_rental_income = transformed_rental_income %>% 
  na.omit() 

save(transformed_rental_income, file = "data/cleaned_data.RData")

Data description

Boro-Block-Lot: Borough-Block-Lot(BBL) location

comparable_rental_income_raw %>% distinct(neighborhood)

## # A tibble: 295 × 1
##    neighborhood   
##    <chr>          
##  1 FINANCIAL      
##  2 SOUTHBRIDGE    
##  3 CIVIC CENTER   
##  4 TRIBECA        
##  5 CHINATOWN      
##  6 SOHO           
##  7 LOWER EAST SIDE
##  8 ALPHABET CITY  
##  9 EAST VILLAGE   
## 10 LITTLE ITALY   
## # … with 285 more rows

comparable_rental_income_raw %>% distinct(year_built)

## # A tibble: 123 × 1
##    year_built
##         <dbl>
##  1       1909
##  2       1926
##  3       1971
##  4       1901
##  5       1960
##  6       1915
##  7       1920
##  8       1900
##  9       1925
## 10       1931
## # … with 113 more rows
…
